{"api_response": {"status": 200, "data": {"users": [{"id": 1, "name": "Alice", "email": "alice@example.com", "avatar": "https://example.com/avatars/alice.jpg", "bio": "Software engineer with 10 years experience"}, {"id": 2, "name": "Bob", "email": "bob@example.com", "avatar": "https://example.com/avatars/bob.jpg", "bio": "Data scientist"}, {"id": 3, "name": "Charlie", "email": "charlie@example.com", "avatar": "https://example.com/avatars/charlie.jpg", "bio": "Product manager"}, {"id": 4, "name": "David", "email": "david@example.com", "avatar": "https://example.com/avatars/david.jpg", "bio": "DevOps engineer"}, {"id": 5, "name": "Eve", "email": "eve@example.com", "avatar": "https://example.com/avatars/eve.jpg", "bio": "Frontend developer"}], "pagination": {"page": 1, "per_page": 10, "total": 100, "total_pages": 10}}}}